2.559661964035034316e+02
2.706161943435668960e+01
1.829640285491943530e+01
1.636370402336120478e+01
1.505748587608337452e+01
1.396596536636352504e+01
1.295924154281616225e+01
1.213062046051025433e+01
1.143364090919494558e+01
1.095521748542785723e+01
1.048151933670043867e+01
1.008493808746337805e+01
9.726717395782470632e+00
9.366968917846680398e+00
9.340399723052978942e+00
9.055226411819457866e+00
8.915604271888732058e+00
8.675219445228576021e+00
8.562897472381591157e+00
8.481948370933531933e+00
8.159024868011474751e+00
8.063131580352782990e+00
8.019170861244202086e+00
7.899329810142517339e+00
7.691402440071105850e+00
7.654714965820312855e+00
7.581575784683227681e+00
7.530639772415161026e+00
7.524997611045836976e+00
7.435023131370544824e+00
7.383651170730590962e+00
7.344867491722107289e+00
7.352182989120483292e+00
7.314141588211059641e+00
7.282223572731018280e+00
7.186631145477295313e+00
7.163016986846924006e+00
7.127750854492187926e+00
7.134086952209472976e+00
7.120105586051940882e+00
7.119475970268249299e+00
7.099941582679748286e+00
7.067859873771667800e+00
7.088264851570129643e+00
7.114367294311523260e+00
7.082255811691283931e+00
7.029058313369750621e+00
7.003712406158447479e+00
7.013686327934265385e+00
7.035965085029602051e+00
