2.956282328796386878e+02
2.905912553787231545e+01
1.838769777297973462e+01
1.634959197998047031e+01
1.504833388328552246e+01
1.393326461791992266e+01
1.285141297340393152e+01
1.209887529373168924e+01
1.144876506805419858e+01
1.089240140914916921e+01
1.041564451217651310e+01
1.003431389808654828e+01
9.721194248199463317e+00
9.453299608230590678e+00
9.197321052551268750e+00
9.017037310600279909e+00
8.905480394363403107e+00
8.692533254623413086e+00
8.650345478057861470e+00
8.588412055969238068e+00
8.386691370010375124e+00
8.188864517211914773e+00
8.243088512420653657e+00
8.112474513053893332e+00
8.117725858688354279e+00
8.070703105926513743e+00
8.074334959983826110e+00
8.077845897674560405e+00
7.641695661544799734e+00
7.516779441833495667e+00
7.551589117050171218e+00
7.598917145729064515e+00
7.442061476707458212e+00
7.408707818984985316e+00
7.466960120201110662e+00
7.405881485939025843e+00
7.311071429252624654e+00
7.212791976928710547e+00
7.051171803474426625e+00
7.077417092323303294e+00
7.094711389541625834e+00
7.076410803794860982e+00
7.099491472244262802e+00
7.038612179756164267e+00
6.979040484428406188e+00
6.980861501693725657e+00
6.937830524444580149e+00
6.868106570243835307e+00
6.813048720359802246e+00
6.794434719085693075e+00
